…
``` r
length(unique(coots$clutch))
```

    ## [1] 184

``` r
coots %>% group_by(clutch) %>% summarise(cant=n())
```

    ## # A tibble: 184 × 2
    ##    clutch  cant
    ##     <int> <int>
    ##  1      1     2
    ##  2      2     2
    ##  3      3     2
    ##  4      4     2
    ##  5      5     2
    ##  6      6     2
    ##  7      7     2
    ##  8      8     2
    ##  9      9     2
    ## 10     10     2
    ## # ℹ 174 more rows
…
resumen_nidadas
```

    ## # A tibble: 184 × 8
    ##    clutch media      sd   min   max   rango  cant orden
    ##     <int> <dbl>   <dbl> <dbl> <dbl>   <dbl> <int> <int>
    ##  1     84 0.577 0.00627 0.573 0.582 0.00887     2     1
    ##  2     97 0.594 0.00224 0.593 0.596 0.00317     2     2
    ##  3    102 0.617 0.0181  0.604 0.630 0.0256      2     3
    ##  4     85 0.649 0.0112  0.641 0.657 0.0158      2     4
    ##  5     67 0.660 0.00493 0.657 0.664 0.00697     2     5
    ##  6     65 0.814 0.00581 0.809 0.818 0.00821     2     6
    ##  7     58 0.878 0.0116  0.870 0.886 0.0164      2     7
    ##  8     59 0.878 0.00968 0.872 0.885 0.0137      2     8
    ##  9     96 0.880 0.0254  0.862 0.898 0.0360      2     9
    ## 10    168 0.882 0.00336 0.880 0.885 0.00475     2    10
    ## # ℹ 174 more rows
…
